{
	"info": {
		"_postman_id": "4d091ce2-7eae-4ee1-8970-fda66c8ef984",
		"name": "WeatherAPI Testing",
		"schema": "https://schema.getpostman.com/json/collection/v2.1.0/collection.json"
	},
	"item": [
		{
			"name": "GET",
			"item": [
				{
					"name": "One City",
					"item": [
						{
							"name": "GET data by city name",
							"event": [
								{
									"listen": "test",
									"script": {
										"id": "53269a9f-5849-42ba-af55-07ee410cd539",
										"exec": [
											"pm.test(\"Status code is 200\", function () {\r",
											"    pm.response.to.have.status(200);\r",
											"});\r",
											"\r",
											"pm.test(\"Response is JSON\", function () {\r",
											"    pm.response.to.be.json;\r",
											"});\r",
											"\r",
											"var Ajv = require('ajv'),\r",
											"    ajv = new Ajv({logger:console}),\r",
											"    schema = {\r",
											"    \"required\": [\r",
											"        \"coord\",\r",
											"        \"weather\",\r",
											"        \"base\",\r",
											"        \"main\",\r",
											"        \"visibility\",\r",
											"        \"wind\",\r",
											"        \"clouds\",\r",
											"        \"dt\",\r",
											"        \"sys\",\r",
											"        \"timezone\",\r",
											"        \"id\",\r",
											"        \"name\",\r",
											"        \"cod\"\r",
											"    ],\r",
											"    \"properties\": {\r",
											"        \"coord\": {\r",
											"            \"required\": [\r",
											"                \"lon\",\r",
											"                \"lat\"\r",
											"            ],\r",
											"            \"properties\": {\r",
											"                \"lon\": {\r",
											"                    \"type\": \"number\"\r",
											"                },\r",
											"                \"lat\": {\r",
											"                    \"type\": \"number\"\r",
											"                }\r",
											"            },\r",
											"            \"type\": \"object\"\r",
											"        },\r",
											"        \"weather\": {\r",
											"            \"items\": {\r",
											"                \"required\": [\r",
											"                    \"id\",\r",
											"                    \"main\",\r",
											"                    \"description\",\r",
											"                    \"icon\"\r",
											"                ],\r",
											"                \"properties\": {\r",
											"                    \"id\": {\r",
											"                        \"type\": \"integer\"\r",
											"                    },\r",
											"                    \"main\": {\r",
											"                        \"type\": \"string\"\r",
											"                    },\r",
											"                    \"description\": {\r",
											"                        \"type\": \"string\"\r",
											"                    },\r",
											"                    \"icon\": {\r",
											"                        \"type\": \"string\"\r",
											"                    }\r",
											"                },\r",
											"                \"type\": \"object\"\r",
											"            },\r",
											"            \"type\": \"array\"\r",
											"        },\r",
											"        \"base\": {\r",
											"            \"type\": \"string\"\r",
											"        },\r",
											"        \"main\": {\r",
											"            \"required\": [\r",
											"                \"temp\",\r",
											"                \"feels_like\",\r",
											"                \"temp_min\",\r",
											"                \"temp_max\",\r",
											"                \"pressure\",\r",
											"                \"humidity\"\r",
											"            ],\r",
											"            \"properties\": {\r",
											"                \"temp\": {\r",
											"                    \"type\": \"number\"\r",
											"                },\r",
											"                \"feels_like\": {\r",
											"                    \"type\": \"number\"\r",
											"                },\r",
											"                \"temp_min\": {\r",
											"                    \"type\": \"number\"\r",
											"                },\r",
											"                \"temp_max\": {\r",
											"                    \"type\": \"number\"\r",
											"                },\r",
											"                \"pressure\": {\r",
											"                    \"type\": \"integer\"\r",
											"                },\r",
											"                \"humidity\": {\r",
											"                    \"type\": \"integer\"\r",
											"                }\r",
											"            },\r",
											"            \"type\": \"object\"\r",
											"        },\r",
											"        \"visibility\": {\r",
											"            \"type\": \"integer\"\r",
											"        },\r",
											"        \"wind\": {\r",
											"            \"required\": [\r",
											"                \"speed\",\r",
											"                \"deg\"\r",
											"            ],\r",
											"            \"properties\": {\r",
											"                \"speed\": {\r",
											"                    \"type\": \"number\"\r",
											"                },\r",
											"                \"deg\": {\r",
											"                    \"type\": \"integer\"\r",
											"                }\r",
											"            },\r",
											"            \"type\": \"object\"\r",
											"        },\r",
											"        \"clouds\": {\r",
											"            \"required\": [\r",
											"                \"all\"\r",
											"            ],\r",
											"            \"properties\": {\r",
											"                \"all\": {\r",
											"                    \"type\": \"integer\"\r",
											"                }\r",
											"            },\r",
											"            \"type\": \"object\"\r",
											"        },\r",
											"        \"dt\": {\r",
											"            \"type\": \"integer\"\r",
											"        },\r",
											"        \"sys\": {\r",
											"            \"required\": [\r",
											"                \"type\",\r",
											"                \"id\",\r",
											"                \"country\",\r",
											"                \"sunrise\",\r",
											"                \"sunset\"\r",
											"            ],\r",
											"            \"properties\": {\r",
											"                \"type\": {\r",
											"                    \"type\": \"integer\"\r",
											"                },\r",
											"                \"id\": {\r",
											"                    \"type\": \"integer\"\r",
											"                },\r",
											"                \"country\": {\r",
											"                    \"type\": \"string\"\r",
											"                },\r",
											"                \"sunrise\": {\r",
											"                    \"type\": \"integer\"\r",
											"                },\r",
											"                \"sunset\": {\r",
											"                    \"type\": \"integer\"\r",
											"                }\r",
											"            },\r",
											"            \"type\": \"object\"\r",
											"        },\r",
											"        \"timezone\": {\r",
											"            \"type\": \"integer\"\r",
											"        },\r",
											"        \"id\": {\r",
											"            \"type\": \"integer\"\r",
											"        },\r",
											"        \"name\": {\r",
											"            \"type\": \"string\"\r",
											"        },\r",
											"        \"cod\": {\r",
											"            \"type\": \"integer\"\r",
											"        }\r",
											"    },\r",
											"    \"type\": \"object\",\r",
											"};\r",
											"\r",
											"pm.test(\"Schema is valid\", function () {\r",
											"    var jsonData = pm.response.json();\r",
											"    pm.expect(ajv.validate(schema, jsonData)).to.be.true;\r",
											"});"
										],
										"type": "text/javascript"
									}
								}
							],
							"request": {
								"method": "GET",
								"header": [],
								"url": {
									"raw": "{{BaseURL}}/data/2.5/weather?appid={{idValue}}&q=London",
									"host": [
										"{{BaseURL}}"
									],
									"path": [
										"data",
										"2.5",
										"weather"
									],
									"query": [
										{
											"key": "appid",
											"value": "{{idValue}}"
										},
										{
											"key": "q",
											"value": "London"
										}
									]
								}
							},
							"response": []
						},
						{
							"name": "GET data by city name in Russian",
							"event": [
								{
									"listen": "test",
									"script": {
										"id": "abb1d210-012f-4399-8c6c-892ed458555b",
										"exec": [
											"pm.test(\"Status code is 200\", function () {\r",
											"    pm.response.to.have.status(200);\r",
											"});\r",
											"\r",
											"pm.test(\"Response is JSON\", function () {\r",
											"    pm.response.to.be.json;\r",
											"});\r",
											"\r",
											"var Ajv = require('ajv'),\r",
											"    ajv = new Ajv({logger:console}),\r",
											"    schema = {\r",
											"    \"required\": [\r",
											"        \"coord\",\r",
											"        \"weather\",\r",
											"        \"base\",\r",
											"        \"main\",\r",
											"        \"visibility\",\r",
											"        \"wind\",\r",
											"        \"clouds\",\r",
											"        \"dt\",\r",
											"        \"sys\",\r",
											"        \"timezone\",\r",
											"        \"id\",\r",
											"        \"name\",\r",
											"        \"cod\"\r",
											"    ],\r",
											"    \"type\": \"object\",\r",
											"};\r",
											"\r",
											"pm.test(\"Schema is valid\", function () {\r",
											"    var jsonData = pm.response.json();\r",
											"    pm.expect(ajv.validate(schema, jsonData)).to.be.true;\r",
											"});"
										],
										"type": "text/javascript"
									}
								}
							],
							"request": {
								"method": "GET",
								"header": [],
								"url": {
									"raw": "{{BaseURL}}/data/2.5/weather?appid={{idValue}}&q=London&lang={{russian}}",
									"host": [
										"{{BaseURL}}"
									],
									"path": [
										"data",
										"2.5",
										"weather"
									],
									"query": [
										{
											"key": "appid",
											"value": "{{idValue}}"
										},
										{
											"key": "q",
											"value": "London"
										},
										{
											"key": "lang",
											"value": "{{russian}}"
										}
									]
								}
							},
							"response": []
						},
						{
							"name": "GET data by city ID",
							"event": [
								{
									"listen": "test",
									"script": {
										"id": "94f47ad5-f409-4232-b335-e86b663d097f",
										"exec": [
											"pm.test(\"Status code is 200\", function () {\r",
											"    pm.response.to.have.status(200);\r",
											"});\r",
											"\r",
											"pm.test(\"Response is JSON\", function () {\r",
											"    pm.response.to.be.json;\r",
											"});\r",
											"\r",
											"var Ajv = require('ajv'),\r",
											"    ajv = new Ajv({logger:console}),\r",
											"    schema = {\r",
											"    \"required\": [\r",
											"        \"coord\",\r",
											"        \"weather\",\r",
											"        \"base\",\r",
											"        \"main\",\r",
											"        \"visibility\",\r",
											"        \"wind\",\r",
											"        \"clouds\",\r",
											"        \"dt\",\r",
											"        \"sys\",\r",
											"        \"timezone\",\r",
											"        \"id\",\r",
											"        \"name\",\r",
											"        \"cod\"\r",
											"    ],\r",
											"    \"type\": \"object\",\r",
											"};\r",
											"\r",
											"pm.test(\"Schema is valid\", function () {\r",
											"    var jsonData = pm.response.json();\r",
											"    pm.expect(ajv.validate(schema, jsonData)).to.be.true;\r",
											"});"
										],
										"type": "text/javascript"
									}
								}
							],
							"request": {
								"method": "GET",
								"header": [],
								"url": {
									"raw": "{{BaseURL}}/data/2.5/weather?appid={{idValue}}&id=2172797",
									"host": [
										"{{BaseURL}}"
									],
									"path": [
										"data",
										"2.5",
										"weather"
									],
									"query": [
										{
											"key": "appid",
											"value": "{{idValue}}"
										},
										{
											"key": "id",
											"value": "2172797"
										}
									]
								}
							},
							"response": []
						},
						{
							"name": "GET data by geographic coordinates",
							"event": [
								{
									"listen": "test",
									"script": {
										"id": "7201e288-0d6c-413b-80c5-bb8699f5c6df",
										"exec": [
											"pm.test(\"Status code is 200\", function () {\r",
											"    pm.response.to.have.status(200);\r",
											"});\r",
											"\r",
											"pm.test(\"Response is JSON\", function () {\r",
											"    pm.response.to.be.json;\r",
											"});\r",
											"\r",
											"var Ajv = require('ajv'),\r",
											"    ajv = new Ajv({logger:console}),\r",
											"    schema = {\r",
											"    \"required\": [\r",
											"        \"coord\",\r",
											"        \"weather\",\r",
											"        \"base\",\r",
											"        \"main\",\r",
											"        \"wind\",\r",
											"        \"clouds\",\r",
											"        \"dt\",\r",
											"        \"sys\",\r",
											"        \"timezone\",\r",
											"        \"id\",\r",
											"        \"name\",\r",
											"        \"cod\"\r",
											"    ],\r",
											"    \"type\": \"object\",\r",
											"};\r",
											"\r",
											"pm.test(\"Schema is valid\", function () {\r",
											"    var jsonData = pm.response.json();\r",
											"    pm.expect(ajv.validate(schema, jsonData)).to.be.true;\r",
											"});"
										],
										"type": "text/javascript"
									}
								}
							],
							"request": {
								"method": "GET",
								"header": [],
								"url": {
									"raw": "{{BaseURL}}/data/2.5/weather?appid={{idValue}}&lat=35&lon=139",
									"host": [
										"{{BaseURL}}"
									],
									"path": [
										"data",
										"2.5",
										"weather"
									],
									"query": [
										{
											"key": "appid",
											"value": "{{idValue}}"
										},
										{
											"key": "lat",
											"value": "35"
										},
										{
											"key": "lon",
											"value": "139"
										}
									]
								}
							},
							"response": []
						},
						{
							"name": "GET data by ZIP code",
							"event": [
								{
									"listen": "test",
									"script": {
										"id": "939ea3c8-5c3f-44aa-a9bf-33fe9ac82b24",
										"exec": [
											"pm.test(\"Status code is 200\", function () {\r",
											"    pm.response.to.have.status(200);\r",
											"});\r",
											"\r",
											"pm.test(\"Response is JSON\", function () {\r",
											"    pm.response.to.be.json;\r",
											"});\r",
											"\r",
											"var Ajv = require('ajv'),\r",
											"    ajv = new Ajv({logger:console}),\r",
											"    schema = {\r",
											"    \"required\": [\r",
											"        \"coord\",\r",
											"        \"weather\",\r",
											"        \"base\",\r",
											"        \"main\",\r",
											"        \"visibility\",\r",
											"        \"wind\",\r",
											"        \"clouds\",\r",
											"        \"dt\",\r",
											"        \"sys\",\r",
											"        \"timezone\",\r",
											"        \"id\",\r",
											"        \"name\",\r",
											"        \"cod\"\r",
											"    ],\r",
											"    \"type\": \"object\",\r",
											"};\r",
											"\r",
											"pm.test(\"Schema is valid\", function () {\r",
											"    var jsonData = pm.response.json();\r",
											"    pm.expect(ajv.validate(schema, jsonData)).to.be.true;\r",
											"});"
										],
										"type": "text/javascript"
									}
								}
							],
							"request": {
								"method": "GET",
								"header": [],
								"url": {
									"raw": "{{BaseURL}}/data/2.5/weather?appid={{idValue}}&zip=94040,us",
									"host": [
										"{{BaseURL}}"
									],
									"path": [
										"data",
										"2.5",
										"weather"
									],
									"query": [
										{
											"key": "appid",
											"value": "{{idValue}}"
										},
										{
											"key": "zip",
											"value": "94040,us"
										}
									]
								}
							},
							"response": []
						}
					],
					"protocolProfileBehavior": {},
					"_postman_isSubFolder": true
				},
				{
					"name": "Several Cities",
					"item": [
						{
							"name": "GET data within a rectangle zone",
							"event": [
								{
									"listen": "test",
									"script": {
										"id": "91e459ec-2a6b-46f8-ab04-3aec34311801",
										"exec": [
											"pm.test(\"Status code is 200\", function () {\r",
											"    pm.response.to.have.status(200);\r",
											"});\r",
											"\r",
											"pm.test(\"Response is JSON\", function () {\r",
											"    pm.response.to.be.json;\r",
											"});\r",
											"\r",
											"var Ajv = require('ajv'),\r",
											"    ajv = new Ajv({logger:console}),\r",
											"    schema = {\r",
											"    \"required\": [\r",
											"        \"cod\",\r",
											"        \"calctime\",\r",
											"        \"cnt\",\r",
											"        \"list\"\r",
											"    ],\r",
											"    \"type\": \"object\",\r",
											"};\r",
											"\r",
											"pm.test(\"Schema is valid\", function () {\r",
											"    var jsonData = pm.response.json();\r",
											"    pm.expect(ajv.validate(schema, jsonData)).to.be.true;\r",
											"});"
										],
										"type": "text/javascript"
									}
								}
							],
							"request": {
								"method": "GET",
								"header": [],
								"url": {
									"raw": "{{BaseURL}}/data/2.5/box/city?appid={{idValue}}&bbox=12,32,15,37,10",
									"host": [
										"{{BaseURL}}"
									],
									"path": [
										"data",
										"2.5",
										"box",
										"city"
									],
									"query": [
										{
											"key": "appid",
											"value": "{{idValue}}"
										},
										{
											"key": "bbox",
											"value": "12,32,15,37,10"
										}
									]
								}
							},
							"response": []
						},
						{
							"name": "GET data within a rectangle zone in Russian",
							"event": [
								{
									"listen": "test",
									"script": {
										"id": "d8b8e34e-7c05-4f30-b76f-b733c0571be9",
										"exec": [
											"pm.test(\"Status code is 200\", function () {\r",
											"    pm.response.to.have.status(200);\r",
											"});\r",
											"\r",
											"pm.test(\"Response is JSON\", function () {\r",
											"    pm.response.to.be.json;\r",
											"});\r",
											"\r",
											"var Ajv = require('ajv'),\r",
											"    ajv = new Ajv({logger:console}),\r",
											"    schema = {\r",
											"    \"required\": [\r",
											"        \"cod\",\r",
											"        \"calctime\",\r",
											"        \"cnt\",\r",
											"        \"list\"\r",
											"    ],\r",
											"    \"type\": \"object\",\r",
											"};\r",
											"\r",
											"pm.test(\"Schema is valid\", function () {\r",
											"    var jsonData = pm.response.json();\r",
											"    pm.expect(ajv.validate(schema, jsonData)).to.be.true;\r",
											"});"
										],
										"type": "text/javascript"
									}
								}
							],
							"request": {
								"method": "GET",
								"header": [],
								"url": {
									"raw": "{{BaseURL}}/data/2.5//box/city?appid={{idValue}}&bbox=12,32,15,37,10&lang={{russian}}",
									"host": [
										"{{BaseURL}}"
									],
									"path": [
										"data",
										"2.5",
										"",
										"box",
										"city"
									],
									"query": [
										{
											"key": "appid",
											"value": "{{idValue}}"
										},
										{
											"key": "bbox",
											"value": "12,32,15,37,10"
										},
										{
											"key": "lang",
											"value": "{{russian}}"
										}
									]
								}
							},
							"response": []
						},
						{
							"name": "GET data for cities in cycle",
							"event": [
								{
									"listen": "test",
									"script": {
										"id": "d551e175-8452-4a46-b505-fc86f4effbf2",
										"exec": [
											"pm.test(\"Status code is 200\", function () {\r",
											"    pm.response.to.have.status(200);\r",
											"});\r",
											"\r",
											"pm.test(\"Response is JSON\", function () {\r",
											"    pm.response.to.be.json;\r",
											"});\r",
											"\r",
											"pm.test(\"City amount is \" + pm.environment.get(\"numberOfCities\"), function () {\r",
											"    var jsonData = pm.response.json();\r",
											"    pm.expect(JSON.stringify(jsonData.count)).to.equal(pm.environment.get(\"numberOfCities\"));\r",
											"});\r",
											"\r",
											"var Ajv = require('ajv'),\r",
											"    ajv = new Ajv({logger:console}),\r",
											"    schema = {\r",
											"    \"required\": [\r",
											"        \"message\",\r",
											"        \"cod\",\r",
											"        \"count\",\r",
											"        \"list\"\r",
											"    ],\r",
											"    \"type\": \"object\",\r",
											"};\r",
											"\r",
											"pm.test(\"Schema is valid\", function () {\r",
											"    var jsonData = pm.response.json();\r",
											"    pm.expect(ajv.validate(schema, jsonData)).to.be.true;\r",
											"});"
										],
										"type": "text/javascript"
									}
								}
							],
							"request": {
								"method": "GET",
								"header": [],
								"url": {
									"raw": "{{BaseURL}}/data/2.5/find?appid={{idValue}}&lat=55.5&lon=37.5&cnt={{numberOfCities}}",
									"host": [
										"{{BaseURL}}"
									],
									"path": [
										"data",
										"2.5",
										"find"
									],
									"query": [
										{
											"key": "appid",
											"value": "{{idValue}}"
										},
										{
											"key": "lat",
											"value": "55.5"
										},
										{
											"key": "lon",
											"value": "37.5"
										},
										{
											"key": "cnt",
											"value": "{{numberOfCities}}"
										}
									]
								}
							},
							"response": []
						},
						{
							"name": "GET data for several city IDs",
							"event": [
								{
									"listen": "test",
									"script": {
										"id": "0318dcf4-8235-4a25-b8d1-2d980588f24c",
										"exec": [
											"pm.test(\"Status code is 200\", function () {\r",
											"    pm.response.to.have.status(200);\r",
											"});\r",
											"\r",
											"pm.test(\"Response is JSON\", function () {\r",
											"    pm.response.to.be.json;\r",
											"});\r",
											"\r",
											"pm.test(\"City amount is \" + pm.environment.get(\"numberOfIDs\"), function () {\r",
											"    var jsonData = pm.response.json();\r",
											"    pm.expect(JSON.stringify(jsonData.cnt)).to.equal(pm.environment.get(\"numberOfIDs\"));\r",
											"});\r",
											"\r",
											"var Ajv = require('ajv'),\r",
											"    ajv = new Ajv({logger:console}),\r",
											"    schema = {\r",
											"    \"required\": [\r",
											"        \"cnt\",\r",
											"        \"list\"\r",
											"    ],\r",
											"    \"type\": \"object\",\r",
											"};\r",
											"\r",
											"pm.test(\"Schema is valid\", function () {\r",
											"    var jsonData = pm.response.json();\r",
											"    pm.expect(ajv.validate(schema, jsonData)).to.be.true;\r",
											"});"
										],
										"type": "text/javascript"
									}
								}
							],
							"request": {
								"method": "GET",
								"header": [],
								"url": {
									"raw": "{{BaseURL}}/data/2.5/group?appid={{idValue}}&id=524901,703448,2643743&units=metric",
									"host": [
										"{{BaseURL}}"
									],
									"path": [
										"",
										"data",
										"2.5",
										"group"
									],
									"query": [
										{
											"key": "appid",
											"value": "{{idValue}}"
										},
										{
											"key": "id",
											"value": "524901,703448,2643743"
										},
										{
											"key": "units",
											"value": "metric"
										}
									]
								}
							},
							"response": []
						}
					],
					"protocolProfileBehavior": {},
					"_postman_isSubFolder": true
				}
			],
			"event": [
				{
					"listen": "prerequest",
					"script": {
						"id": "36a0d793-63d0-4144-9a3d-810a6b18e6ea",
						"type": "text/javascript",
						"exec": [
							""
						]
					}
				},
				{
					"listen": "test",
					"script": {
						"id": "c0a425c0-63c9-483a-8f11-81fd02358466",
						"type": "text/javascript",
						"exec": [
							""
						]
					}
				}
			],
			"protocolProfileBehavior": {}
		}
	],
	"auth": {
		"type": "apikey",
		"apikey": [
			{
				"key": "key",
				"value": "",
				"type": "string"
			},
			{
				"key": "value",
				"value": "",
				"type": "string"
			}
		]
	},
	"event": [
		{
			"listen": "prerequest",
			"script": {
				"id": "d75573e5-85be-4cb9-98d8-adf93722d8ec",
				"type": "text/javascript",
				"exec": [
					""
				]
			}
		},
		{
			"listen": "test",
			"script": {
				"id": "99d9d8f5-7366-44ea-bddb-b394bd7fb2e2",
				"type": "text/javascript",
				"exec": [
					""
				]
			}
		}
	],
	"protocolProfileBehavior": {}
}